Assignment 1/Mini-ALU/Mini-ALU.sim/sim_1/behav/xsim/simulate.log
Time resolution is 1 ps
Time=0 | A=001001, B=001001, fxn=000 -> X=001001
Time=10000 | A=001001, B=001001, fxn=001 -> X=001001
Time=20000 | A=001001, B=001001, fxn=010 -> X=110111
Time=30000 | A=001001, B=001001, fxn=011 -> X=110111
Time=40000 | A=001001, B=001001, fxn=100 -> X=000000
Time=50000 | A=001001, B=001001, fxn=101 -> X=111111
Time=60000 | A=001001, B=001001, fxn=110 -> X=010010
Time=70000 | A=001001, B=001001, fxn=111 -> X=000000
Time=80000 | A=000010, B=010001, fxn=000 -> X=000010
Time=90000 | A=000010, B=010001, fxn=001 -> X=010001
Time=100000 | A=000010, B=010001, fxn=010 -> X=111110
Time=110000 | A=000010, B=010001, fxn=011 -> X=101111
Time=120000 | A=000010, B=010001, fxn=100 -> X=000001
Time=130000 | A=000010, B=010001, fxn=101 -> X=101100
Time=140000 | A=000010, B=010001, fxn=110 -> X=010011
Time=150000 | A=000010, B=010001, fxn=111 -> X=110001
Time=160000 | A=111110, B=011000, fxn=000 -> X=111110
Time=170000 | A=111110, B=011000, fxn=001 -> X=011000
Time=180000 | A=111110, B=011000, fxn=010 -> X=000010
Time=190000 | A=111110, B=011000, fxn=011 -> X=101000
Time=200000 | A=111110, B=011000, fxn=100 -> X=000000
Time=210000 | A=111110, B=011000, fxn=101 -> X=011001
Time=220000 | A=111110, B=011000, fxn=110 -> X=010110
Time=230000 | A=111110, B=011000, fxn=111 -> X=100110
Time=240000 | A=110100, B=101101, fxn=000 -> X=110100
Time=250000 | A=110100, B=101101, fxn=001 -> X=101101
Time=260000 | A=110100, B=101101, fxn=010 -> X=001100
Time=270000 | A=110100, B=101101, fxn=011 -> X=010011
Time=280000 | A=110100, B=101101, fxn=100 -> X=000000
Time=290000 | A=110100, B=101101, fxn=101 -> X=100110
Time=300000 | A=110100, B=101101, fxn=110 -> X=100001
Time=310000 | A=110100, B=101101, fxn=111 -> X=000111
$finish called at time : 320 ns : File "C:/Users/shane/Documents/DIGITAL-SYSTEMS-DESIGN/Assignment 1/Mini-ALU/Mini-ALU.srcs/sim_1/new/tb_mini_alu.v" Line 175
